{
  "EDITOR_STATE": {
    "allProjectFiles": {
      "20164e64-6069-4704-b0de-addf43cbc066": {
        "id": "20164e64-6069-4704-b0de-addf43cbc066",
        "parent": null,
        "name": "indu-sep07-1200.js",
        "type": "JS_LAMBDA",
        "isDirectory": false,
        "children": [],
        "isRemovable": true,
        "filePath": "indu-sep07-1200.js",
        "cursor": {
          "lineNumber": 1,
          "column": 1
        },
        "config": {
          "runtime": "nodejs10.x",
          "handler": "handler",
          "timeout": 60,
          "memory": 128,
          "layers": [],
          "name": "induSep071200"
        },
        "triggers": [
          {
            "resourceName": "apigindusep7indunilqatstany",
            "config": {}
          }
        ],
        "lastUpdated": 1602052210944
      }
    },
    "openFiles": [
      "20164e64-6069-4704-b0de-addf43cbc066"
    ],
    "currentFileId": "20164e64-6069-4704-b0de-addf43cbc066",
    "resources": {
      "apigindusep7indunilqatstany": {
        "name": "apigindusep7indunilqatstany",
        "type": "API_GATEWAY",
        "config": {
          "apiType": 1,
          "apiMode": 0,
          "apiName": "indusep7",
          "endpointType": "EDGE",
          "resourceMode": 0,
          "resourceName": "indunil/qa/tst",
          "resourcePath": "/indunil/qa/tst",
          "restMethod": "ANY",
          "proxyIntegration": false,
          "enableCORS": false,
          "stageMode": 0,
          "stageName": "Test",
          "mode": 0
        }
      },
      "snsTestSNS": {
        "name": "snsTestSNS",
        "type": "SNS",
        "config": {
          "topicMode": 1,
          "topicName": "TestSNS",
          "topicArn": "arn:aws:sns:us-east-1:318300609668:TestSNS",
          "snsType": 0,
          "subscriptions": []
        }
      }
    },
    "customTemplate": {
      "syntax": "JSON",
      "overrideDefault": false,
      "dialect": null,
      "definitions": null
    },
    "envVariables": [
      {
        "lambdaId": "all",
        "varKey": "SIGMA_AWS_ACC_ID",
        "varValue": null,
        "shouldPersist": false,
        "displayOnly": false,
        "editable": false
      }
    ],
    "packageJSON": {
      "dependencies": {
        "aws-sdk": {
          "name": "aws-sdk",
          "language": "nodejs",
          "version": "2.644.0",
          "dev": true,
          "notRemovable": false
        }
      }
    }
  },
  "PROJECT_META": {
    "sigmaVersion": "1.4.3.1",
    "projectName": "indu-sep07-1200",
    "projectDescription": "",
    "projectVersion": "1.0.0",
    "projectRegion": "us-east-1",
    "platform": "AWS",
    "language": "nodejs",
    "platformRegions": {},
    "lastSave": 1602052245374
  },
  "VCS_STATE": {
    "provider": "BitBucket",
    "repo": {
      "name": "indu-sep07-1200",
      "url": "https://bitbucket.org/Indunil1992/indu-sep07-1200"
    }
  }
}